<?xml version="1.0" standalone="no"?>
<!DOCTYPE svg PUBLIC "-//W3C//DTD SVG 20010904//EN"
 "http://www.w3.org/TR/2001/REC-SVG-20010904/DTD/svg10.dtd">
<svg version="1.0" xmlns="http://www.w3.org/2000/svg"
 width="137.000000pt" height="136.000000pt" viewBox="0 0 137.000000 136.000000"
 preserveAspectRatio="xMidYMid meet">

<g transform="translate(0.000000,136.000000) scale(0.100000,-0.100000)"
fill="#000000" stroke="none">
<path d="M592 1329 c-141 -21 -268 -86 -371 -190 -147 -147 -216 -343 -191
-546 20 -157 80 -282 191 -392 261 -262 675 -263 937 -3 134 133 196 282 196
472 0 161 -46 295 -143 418 -140 176 -394 275 -619 241z m288 -55 c203 -64
370 -237 426 -444 23 -84 23 -233 0 -319 -44 -170 -179 -334 -336 -409 -106
-50 -172 -65 -280 -65 -175 0 -320 61 -446 187 -128 129 -184 264 -184 446 0
183 56 318 184 445 176 175 404 231 636 159z"/>
<path d="M662 978 c-11 -18 -24 -46 -28 -63 -4 -16 -16 -46 -27 -66 l-21 -36
-141 -6 c-174 -8 -197 -15 -193 -59 3 -31 5 -32 93 -54 60 -15 126 -24 202
-25 l113 -3 0 -112 0 -111 -47 -18 c-57 -21 -83 -42 -83 -66 0 -14 13 -18 76
-24 70 -7 232 0 242 10 3 2 2 15 -2 28 -4 19 -20 30 -66 47 l-61 23 3 111 3
111 112 3 c71 3 143 12 200 26 l88 22 0 34 c0 44 -17 49 -196 57 l-137 6 -22
51 c-39 92 -65 140 -76 143 -7 2 -21 -11 -32 -29z"/>
</g>
</svg>
