<?xml version="1.0" standalone="no"?>
<!DOCTYPE svg PUBLIC "-//W3C//DTD SVG 20010904//EN"
 "http://www.w3.org/TR/2001/REC-SVG-20010904/DTD/svg10.dtd">
<svg version="1.0" xmlns="http://www.w3.org/2000/svg"
 width="135.000000pt" height="134.000000pt" viewBox="0 0 135.000000 134.000000"
 preserveAspectRatio="xMidYMid meet">

<g transform="translate(0.000000,134.000000) scale(0.100000,-0.100000)"
fill="#000000" stroke="none">
<path d="M584 1331 c-343 -55 -592 -361 -570 -701 11 -169 76 -311 198 -432
63 -63 96 -86 170 -122 117 -56 179 -70 298 -70 202 1 378 82 508 236 101 120
154 267 155 428 0 358 -271 643 -632 664 -42 3 -99 1 -127 -3z m251 -47 c218
-52 403 -238 461 -463 24 -97 16 -263 -18 -359 -91 -255 -329 -425 -598 -425
-108 0 -174 15 -280 65 -120 57 -232 170 -290 290 -122 254 -76 523 125 723
167 167 368 224 600 169z"/>
<path d="M661 1103 c-15 -38 -31 -127 -31 -174 0 -56 -8 -71 -31 -58 -18 9
-19 5 -19 -79 l0 -90 -40 -36 c-22 -19 -71 -57 -110 -83 l-71 -47 3 -44 3 -45
94 -23 c51 -12 95 -25 98 -28 13 -12 -12 -46 -53 -72 -36 -23 -44 -33 -42 -54
3 -21 12 -27 63 -42 83 -23 94 -22 100 7 3 14 7 35 10 48 3 18 11 22 45 22
l40 1 6 -48 c7 -55 8 -55 99 -32 61 15 65 18 65 45 0 22 -9 35 -44 58 -24 17
-46 39 -49 50 -4 16 4 21 62 36 154 38 141 31 141 79 0 42 -1 43 -77 94 -43
28 -93 64 -110 81 -33 29 -33 31 -33 120 0 83 -8 108 -25 81 -14 -22 -23 3
-29 80 -8 87 -31 180 -45 180 -5 0 -14 -12 -20 -27z"/>
</g>
</svg>
